[
    {
        "vendorPk": 1,
        "name": "Oracle InForm",
        "descriotion": "Oracle InForm",
        "type": "EDC",
        "active": 1,
        "statusTableName": "BRIDGE_INFORM_STATUS",
        "createdBy": "jnagaria",
        "modifiedBy": "jnagaria",
        "createdDate": "2017-07-13 10:28:02",
        "modifiedDate": "2017-07-13 10:28:02"
    },
    {
        "vendorPk": 2,
        "name": "Medidata RAVE",
        "descriotion": "Medidata RAVE",
        "type": "EDC",
        "active": 1,
        "statusTableName": "BRIDGE_RAVE_SYSTEM",
        "createdBy": "2015/08/19",
        "modifiedBy": "2015/08/19",
        "createdDate": "2017-07-13 10:28:02",
        "modifiedDate": "2017-07-13 10:28:02"
    },
    {
        "vendorPk": 3,
        "name": "OmniComm TrialMaster",
        "descriotion": "OmniComm TrialMaster",
        "type": "EDC",
        "active": 1,
        "statusTableName": "BRIDGE_TM_SYSTEM",
        "createdBy": "2015/08/19",
        "modifiedBy": "2015/08/19",
        "createdDate": "2017-07-13 10:28:02",
        "modifiedDate": "2017-07-13 10:28:02"
    },
    {
        "vendorPk": 4,
        "name": "MySQL",
        "descriotion": "MySQL",
        "type": "DB",
        "active": 1,
        "statusTableName": "",
        "createdBy": "2015/08/19",
        "modifiedBy": "2015/08/19",
        "createdDate": "2017-07-13 10:28:02",
        "modifiedDate": "2017-07-13 10:28:02"
    }
]
